{
  "name": "easy-light",
  "title": "Easy Light",
  "description": "Configure a set of predefined light source directly placeable",
  "version": "${MODULE_VERSION}",
  "minimumCoreVersion": "0.8.0",
  "compatibleCoreVersion": "0.8.9",
  "author": "Skeroujvapluvit",
  "esmodules": ["main.js"],
  "languages": [
    {
      "lang": "en",
      "name": "English",
      "path": "lang/en.json"
    },
    {
      "lang": "fr",
      "name": "Français",
      "path": "lang/fr.json"
    }
  ],
  "styles": [],
  "url": "https://gitlab.com/greenskin-foundryvtt/easy-light",
  "download": "https://gitlab.com/greenskin-foundryvtt/easy-light/-/releases/${MODULE_VERSION}/downloads/dist/easy-light.zip",
  "manifest": "https://gitlab.com/greenskin-foundryvtt/easy-light/-/releases/${MODULE_VERSION}/downloads/dist/module.json",
  "readme": "https://gitlab.com/greenskin-foundryvtt/easy-light/-/raw/${MODULE_VERSION}/README.md",
  "changelog": "https://gitlab.com/greenskin-foundryvtt/easy-light/-/raw/${MODULE_VERSION}/CHANGELOG.md"
}
